{"count":200,"next":"http://127.0.0.1:8000/en/api/usercards/?format=json&page=2","previous":null,"results":[{"id":201,"title":"God of all Comfort","scripture":"2 Cor. 1:3-4","category":"Names of God","usercardnote_set":[],"answered":false,"hidden":false,"in_prayer_deck":false},{"id":202,"title":"Jehovah - Rapha (the Lord our Healer)","scripture":"Ex. 15:26","category":"Names of God","usercardnote_set":[],"answered":false,"hidden":false,"in_prayer_deck":false},{"id":203,"title":"The Lord","scripture":"Ex. 34:6-7","category":"Names of God","usercardnote_set":[],"answered":false,"hidden":false,"in_prayer_deck":false},{"id":204,"title":"God of Hope","scripture":"Rom. 15:13","category":"Names of God","usercardnote_set":[],"answered":false,"hidden":false,"in_prayer_deck":false},{"id":205,"title":"Just and Justifier","scripture":"Rom. 3:25-26","category":"Names of God","usercardnote_set":[],"answered":false,"hidden":false,"in_prayer_deck":false},{"id":206,"title":"The Potter","scripture":"Is. 64:8","category":"Names of God","usercardnote_set":[],"answered":false,"hidden":false,"in_prayer_deck":false},{"id":207,"title":"Elohim (strong Creator God)","scripture":"Gen. 1:1","category":"Names of God","usercardnote_set":[],"answered":false,"hidden":false,"in_prayer_deck":false},{"id":208,"title":"Jehovah - Tsidkenu (the Lord of our righteousness)","scripture":"Jer 23:6","category":"Names of God","usercardnote_set":[],"answered":false,"hidden":false,"in_prayer_deck":false},{"id":209,"title":"I Am Who I Am","scripture":"Ex. 3:14","category":"Names of God","usercardnote_set":[],"answered":false,"hidden":false,"in_prayer_deck":false},{"id":210,"title":"El Shaddai (God Almighty)","scripture":"Gen. 17:1-2","category":"Names of God","usercardnote_set":[],"answered":false,"hidden":false,"in_prayer_deck":false},{"id":211,"title":"Jehovah - Shemmah (the Lord is present)","scripture":"Ezek. 48:35","category":"Names of God","usercardnote_set":[],"answered":false,"hidden":false,"in_prayer_deck":false},{"id":212,"title":"El-Olam (the Eternal God)","scripture":"Gen. 21:33","category":"Names of God","usercardnote_set":[],"answered":false,"hidden":false,"in_prayer_deck":false},{"id":213,"title":"Jehovah - Shalom (the Lord our Peace)","scripture":"Judg. 6:23-24","category":"Names of God","usercardnote_set":[],"answered":false,"hidden":false,"in_prayer_deck":false},{"id":214,"title":"Jehovah - M'kaddesh (the Lord our Sanctifier)","scripture":"Ex. 31:13","category":"Names of God","usercardnote_set":[],"answered":false,"hidden":false,"in_prayer_deck":false},{"id":215,"title":"Jehovah - Eli (the Lord my God)","scripture":"Ps. 18:2","category":"Names of God","usercardnote_set":[],"answered":false,"hidden":false,"in_prayer_deck":false},{"id":216,"title":"Jehovah - Nissi (the Lord our Banner)","scripture":"Ex. 17:15","category":"Names of God","usercardnote_set":[],"answered":false,"hidden":false,"in_prayer_deck":false},{"id":217,"title":"Judge of all the Earth","scripture":"Gen. 18:25","category":"Names of God","usercardnote_set":[],"answered":false,"hidden":false,"in_prayer_deck":false},{"id":218,"title":"Adonai Jehovah (Lord God)","scripture":"Deut. 3:24","category":"Names of God","usercardnote_set":[],"answered":false,"hidden":false,"in_prayer_deck":false},{"id":219,"title":"Jehovah - Sabaoth (the Lord of Hosts)","scripture":"1 Sam. 1:11","category":"Names of God","usercardnote_set":[],"answered":false,"hidden":false,"in_prayer_deck":false},{"id":220,"title":"Jehovah - Elyon (the Lord Most High)","scripture":"Ps. 7:17","category":"Names of God","usercardnote_set":[],"answered":false,"hidden":false,"in_prayer_deck":false},{"id":221,"title":"Jehovah - Raah (the Lord my Shepherd)","scripture":"Ps. 23:1","category":"Names of God","usercardnote_set":[],"answered":false,"hidden":false,"in_prayer_deck":false},{"id":222,"title":"El Kanna (Jealous God)","scripture":"Ex. 20:5-6","category":"Names of God","usercardnote_set":[],"answered":false,"hidden":false,"in_prayer_deck":false},{"id":223,"title":"Jehovah (the Relational God)","scripture":"Gen. 2:4","category":"Names of God","usercardnote_set":[],"answered":false,"hidden":false,"in_prayer_deck":false},{"id":224,"title":"El Elyon (God Most High)","scripture":"Gen. 14:19-20","category":"Names of God","usercardnote_set":[],"answered":false,"hidden":false,"in_prayer_deck":false},{"id":225,"title":"Jehovah-Jireh (The Lord will Provide)","scripture":"Gen. 22:14","category":"Names of God","usercardnote_set":[],"answered":false,"hidden":false,"in_prayer_deck":false}]}