{
  "count": 200,
  "next": "http://127.0.0.1:8000/en/api/usercards/?format=json&page=2",
  "previous": null,
  "results": [
    {
      "id": 201,
      "card": "God of all Comfort",
      "usercardnote_set": [],
      "answered": false,
      "hidden": false,
      "in_prayer_deck": false
    },
    {
      "id": 202,
      "card": "Jehovah - Rapha (the Lord our Healer)",
      "usercardnote_set": [],
      "answered": false,
      "hidden": false,
      "in_prayer_deck": false
    },
    {
      "id": 203,
      "card": "The Lord",
      "usercardnote_set": [],
      "answered": false,
      "hidden": false,
      "in_prayer_deck": false
    },
    {
      "id": 204,
      "card": "God of Hope",
      "usercardnote_set": [],
      "answered": false,
      "hidden": false,
      "in_prayer_deck": false
    },
    {
      "id": 205,
      "card": "Just and Justifier",
      "usercardnote_set": [],
      "answered": false,
      "hidden": false,
      "in_prayer_deck": false
    },
    {
      "id": 206,
      "card": "The Potter",
      "usercardnote_set": [],
      "answered": false,
      "hidden": false,
      "in_prayer_deck": false
    },
    {
      "id": 207,
      "card": "Elohim (strong Creator God)",
      "usercardnote_set": [],
      "answered": false,
      "hidden": false,
      "in_prayer_deck": false
    },
    {
      "id": 208,
      "card": "Jehovah - Tsidkenu (the Lord of our righteousness)",
      "usercardnote_set": [],
      "answered": false,
      "hidden": false,
      "in_prayer_deck": false
    },
    {
      "id": 209,
      "card": "I Am Who I Am",
      "usercardnote_set": [],
      "answered": false,
      "hidden": false,
      "in_prayer_deck": false
    },
    {
      "id": 210,
      "card": "El Shaddai (God Almighty)",
      "usercardnote_set": [],
      "answered": false,
      "hidden": false,
      "in_prayer_deck": false
    },
    {
      "id": 211,
      "card": "Jehovah - Shemmah (the Lord is present)",
      "usercardnote_set": [],
      "answered": false,
      "hidden": false,
      "in_prayer_deck": false
    },
    {
      "id": 212,
      "card": "El-Olam (the Eternal God)",
      "usercardnote_set": [],
      "answered": false,
      "hidden": false,
      "in_prayer_deck": false
    },
    {
      "id": 213,
      "card": "Jehovah - Shalom (the Lord our Peace)",
      "usercardnote_set": [],
      "answered": false,
      "hidden": false,
      "in_prayer_deck": false
    },
    {
      "id": 214,
      "card": "Jehovah - M'kaddesh (the Lord our Sanctifier)",
      "usercardnote_set": [],
      "answered": false,
      "hidden": false,
      "in_prayer_deck": false
    },
    {
      "id": 215,
      "card": "Jehovah - Eli (the Lord my God)",
      "usercardnote_set": [],
      "answered": false,
      "hidden": false,
      "in_prayer_deck": false
    },
    {
      "id": 216,
      "card": "Jehovah - Nissi (the Lord our Banner)",
      "usercardnote_set": [],
      "answered": false,
      "hidden": false,
      "in_prayer_deck": false
    },
    {
      "id": 217,
      "card": "Judge of all the Earth",
      "usercardnote_set": [],
      "answered": false,
      "hidden": false,
      "in_prayer_deck": false
    },
    {
      "id": 218,
      "card": "Adonai Jehovah (Lord God)",
      "usercardnote_set": [],
      "answered": false,
      "hidden": false,
      "in_prayer_deck": false
    },
    {
      "id": 219,
      "card": "Jehovah - Sabaoth (the Lord of Hosts)",
      "usercardnote_set": [],
      "answered": false,
      "hidden": false,
      "in_prayer_deck": false
    },
    {
      "id": 220,
      "card": "Jehovah - Elyon (the Lord Most High)",
      "usercardnote_set": [],
      "answered": false,
      "hidden": false,
      "in_prayer_deck": false
    },
    {
      "id": 221,
      "card": "Jehovah - Raah (the Lord my Shepherd)",
      "usercardnote_set": [],
      "answered": false,
      "hidden": false,
      "in_prayer_deck": false
    },
    {
      "id": 222,
      "card": "El Kanna (Jealous God)",
      "usercardnote_set": [],
      "answered": false,
      "hidden": false,
      "in_prayer_deck": false
    },
    {
      "id": 223,
      "card": "Jehovah (the Relational God)",
      "usercardnote_set": [],
      "answered": false,
      "hidden": false,
      "in_prayer_deck": false
    },
    {
      "id": 224,
      "card": "El Elyon (God Most High)",
      "usercardnote_set": [],
      "answered": false,
      "hidden": false,
      "in_prayer_deck": false
    },
    {
      "id": 225,
      "card": "Jehovah-Jireh (The Lord will Provide)",
      "usercardnote_set": [],
      "answered": false,
      "hidden": false,
      "in_prayer_deck": false
    }
  ]
}
