{"count":200,"next":"http://127.0.0.1:8000/en/api/usercards/?format=json&page=3","previous":"http://127.0.0.1:8000/en/api/usercards/?format=json","results":[{"id":226,"card":"King of Heaven","usercardnote_set":[],"answered":false,"hidden":false,"in_prayer_deck":false},{"id":227,"card":"El Roi (God who Sees)","usercardnote_set":[],"answered":false,"hidden":false,"in_prayer_deck":false},{"id":228,"card":"Creator","usercardnote_set":[],"answered":false,"hidden":false,"in_prayer_deck":false},{"id":229,"card":"Ruler of All Things","usercardnote_set":[],"answered":false,"hidden":false,"in_prayer_deck":false},{"id":230,"card":"Sovereign Lord","usercardnote_set":[],"answered":false,"hidden":false,"in_prayer_deck":false},{"id":231,"card":"God my Savior","usercardnote_set":[],"answered":false,"hidden":false,"in_prayer_deck":false},{"id":232,"card":"Lord of Heaven and Earth","usercardnote_set":[],"answered":false,"hidden":false,"in_prayer_deck":false},{"id":233,"card":"God of all grace","usercardnote_set":[],"answered":false,"hidden":false,"in_prayer_deck":false},{"id":234,"card":"The Great God","usercardnote_set":[],"answered":false,"hidden":false,"in_prayer_deck":false},{"id":235,"card":"Holy","usercardnote_set":[],"answered":false,"hidden":false,"in_prayer_deck":false},{"id":236,"card":"Love","usercardnote_set":[],"answered":false,"hidden":false,"in_prayer_deck":false},{"id":237,"card":"My Hiding Place","usercardnote_set":[],"answered":false,"hidden":false,"in_prayer_deck":false},{"id":238,"card":"Light","usercardnote_set":[],"answered":false,"hidden":false,"in_prayer_deck":false},{"id":239,"card":"My Joy and My Delight","usercardnote_set":[],"answered":false,"hidden":false,"in_prayer_deck":false},{"id":240,"card":"My Strength","usercardnote_set":[],"answered":false,"hidden":false,"in_prayer_deck":false},{"id":241,"card":"My Help","usercardnote_set":[],"answered":false,"hidden":false,"in_prayer_deck":false},{"id":242,"card":"My Rock and My Redeemer","usercardnote_set":[],"answered":false,"hidden":false,"in_prayer_deck":false},{"id":243,"card":"My King","usercardnote_set":[],"answered":false,"hidden":false,"in_prayer_deck":false},{"id":244,"card":"My Father","usercardnote_set":[],"answered":false,"hidden":false,"in_prayer_deck":false},{"id":245,"card":"My Fortress of Salvation","usercardnote_set":[],"answered":false,"hidden":false,"in_prayer_deck":false},{"id":246,"card":"My Hope and My Confidence","usercardnote_set":[],"answered":false,"hidden":false,"in_prayer_deck":false},{"id":247,"card":"My Light, Salvation, Stronghold","usercardnote_set":[],"answered":false,"hidden":false,"in_prayer_deck":false},{"id":248,"card":"My Refuge","usercardnote_set":[],"answered":false,"hidden":false,"in_prayer_deck":false},{"id":249,"card":"My Portion","usercardnote_set":[],"answered":false,"hidden":false,"in_prayer_deck":false},{"id":250,"card":"My Shield","usercardnote_set":[],"answered":false,"hidden":false,"in_prayer_deck":false}]}